…
In total, there are **39123** products found in **131209** orders from
**131209** distinct users.

Below is a table summarizing the number of items ordered from aisle. In
total, there are **134** aisles, with fresh vegetables and fresh fruits
holding the most items ordered by far.

``` r
instacart %>% 
  count(aisle) %>% 
  arrange(desc(n))
```

    ## # A tibble: 134 × 2
    ##    aisle                              n
    ##    <chr>                          <int>
    ##  1 fresh vegetables              150609
    ##  2 fresh fruits                  150473
    ##  3 packaged vegetables fruits     78493
    ##  4 yogurt                         55240
    ##  5 packaged cheese                41699
    ##  6 water seltzer sparkling water  36617
    ##  7 milk                           32644
    ##  8 chips pretzels                 31269
    ##  9 soy lactosefree                26240
    ## 10 bread                          23635
    ## # … with 124 more rows
…
Now there are **2595176** rows and **9** columns in the `ny_noaa_df`
dataset. Variables are **9** which include id, year, month, day,
prcp(tenths of mm), snow(mm), snwd(mm), tmax(tenths of degrees C), and
tmin(tenths of degrees C).

### Find the most commonly observed value for snowfall

``` r
ny_noaa_df %>%
  group_by(snow)%>%
  summarize(snow_obs = n())%>%
  arrange(desc(snow_obs))
```

    ## # A tibble: 282 × 2
    ##     snow snow_obs
    ##    <dbl>    <int>
    ##  1     0  2008508
    ##  2    NA   381221
    ##  3    25    31022
    ##  4    13    23095
    ##  5    51    18274
    ##  6    76    10173
    ##  7     8     9962
    ##  8     5     9748
    ##  9    38     9197
    ## 10     3     8790
    ## # … with 272 more rows
…
